<svg width="82" height="86" viewBox="0 0 82 86" fill="none" xmlns="http://www.w3.org/2000/svg">
<path d="M14.1491 80.2267L1.02051 45.148C1.02051 45.148 43.7272 29.2173 45.1283 28.6465L58.2569 63.7252C57.1672 64.1922 57.8417 63.9327 31.2733 73.844L35.0614 84.9488L20.8431 77.7878C20.3242 77.8915 14.1491 80.2267 14.1491 80.2267Z" fill="white"/>
<path d="M80.0508 36.6382L66.9222 1.55957C66.9222 1.55957 24.2674 17.5941 22.8145 18.0611L35.943 53.1398C37.0846 52.7246 36.41 53.036 62.9266 43.0209L67.3893 53.8662L73.4087 39.129C73.8757 38.9215 80.0508 36.6382 80.0508 36.6382Z" fill="white"/>
<path d="M81.0368 36.2228L67.9082 1.14409C67.8044 0.884631 67.5969 0.677064 67.3374 0.573281C67.078 0.469498 66.7666 0.469498 66.5071 0.52139C66.092 0.677064 23.8523 16.5559 22.4512 17.0229C22.1918 17.1267 21.9842 17.3342 21.8285 17.5937C21.7248 17.8532 21.6729 18.1645 21.7766 18.424L27.6404 34.0433C28.315 33.7839 28.9896 33.5244 29.6123 33.3168L24.1637 18.6834C30.1831 16.4521 60.2283 5.13974 66.2477 2.9084L78.6498 36.0152C76.8855 36.6898 73.3049 37.9871 72.9417 38.1427C72.6822 38.2465 72.4228 38.4541 72.319 38.7136L67.2855 51.0637L63.8088 42.6054C63.6012 42.0865 62.9785 41.827 62.4596 42.0346C58.6196 43.4876 55.3505 44.733 52.5483 45.7708C51.8737 46.0303 51.1991 46.2897 50.5764 46.4973C40.6133 50.2335 37.7073 51.3232 36.5138 51.7383L30.3387 35.2368C29.6642 35.4963 29.0414 35.7038 28.3669 35.9633L34.9052 53.4508C35.1128 53.9697 35.6836 54.281 36.2544 54.0735L36.41 54.0216C37.1884 53.7621 37.8111 53.5545 51.3029 48.4692L56.7515 63.0507C55.2467 63.6215 50.5764 65.3858 30.7539 72.7544C30.235 72.962 29.9236 73.5328 30.1312 74.1036L33.0371 82.7176L21.2577 76.8019C21.102 76.7501 20.9464 76.6982 20.7907 76.6982C20.6869 76.6982 20.5312 76.6982 20.4275 76.7501C20.0642 76.9057 16.5356 78.203 14.7194 78.8776L2.36921 45.7708C5.94972 44.4216 17.9886 39.959 28.4706 36.0152L27.7442 34.0433C15.4459 38.6617 0.916237 44.0584 0.656779 44.1622C0.397321 44.266 0.189752 44.4735 0.0859688 44.733C-0.0178143 44.9924 -0.0178016 45.3038 0.0340899 45.5632L13.1626 80.6419C13.2664 80.9014 13.474 81.1089 13.7335 81.2127C13.9929 81.3165 14.3043 81.3165 14.5637 81.2646C14.5637 81.2646 19.2858 79.5003 20.7907 78.9295L34.5938 85.883C34.7495 85.9349 34.9052 85.9867 35.0609 85.9867C35.3203 85.9867 35.5798 85.883 35.7355 85.7273C36.0468 85.4678 36.2025 85.0008 36.0468 84.5857L32.622 74.4668C56.8034 65.4377 57.5299 65.1782 58.4639 64.7631L58.6196 64.7112C59.1385 64.5037 59.398 63.881 59.1904 63.362L53.3786 47.7946C55.9213 46.8086 58.8791 45.7189 62.3558 44.4216L66.4033 54.281C66.559 54.6962 66.9742 54.9556 67.3893 54.9556C67.8044 54.9556 68.2196 54.6962 68.3752 54.281L74.1871 39.959C75.6919 39.3881 80.4141 37.6238 80.4141 37.6238C80.6735 37.5201 80.8811 37.3125 80.9849 37.053C81.1406 36.7936 81.1405 36.5341 81.0368 36.2228Z" fill="black"/>
<path d="M30.3907 35.2893L29.6643 33.3174C28.9897 33.5768 28.367 33.7844 27.6924 34.0439L28.4189 36.0157C29.0935 35.7563 29.7681 35.5487 30.3907 35.2893Z" fill="black"/>
</svg>
