<svg width="277" height="50" viewBox="0 0 277 50" fill="none" xmlns="http://www.w3.org/2000/svg">
<g clip-path="url(#clip0)">
<path d="M276.268 31.4141L277 0.592718C277 0.42337 276.957 0.254022 276.828 0.169348C276.699 0.042337 276.569 0 276.397 0C275.236 0 67.7442 0.42337 66.1527 0.381033C65.9807 0.381033 65.8516 0.42337 65.7226 0.550381C65.5936 0.677392 65.5505 0.804403 65.5505 0.973751L64.8193 31.7528C64.8193 32.0915 65.0774 32.3455 65.4215 32.3878C66.0667 32.3878 66.0667 32.3878 67.271 32.3878C68.4324 32.3455 77.336 32.1761 82.3684 32.0915L90.9709 49.6613C91.0569 49.7883 91.186 49.9153 91.315 49.9577C91.401 50 91.5301 50 91.6161 49.9577C91.8742 49.873 92.0892 49.6613 92.0892 49.4073L91.9602 32.1761C100.004 32.1338 274.763 32.0491 275.666 32.0491C276.01 31.9644 276.268 31.7104 276.268 31.4141Z" fill="white"/>
<path d="M11.2693 26.9263H8.00031L7.44115 23.2854H3.48401L2.96786 26.9263H0L3.26894 6.77393H8.00031L11.2693 26.9263ZM3.91413 20.5335H7.01102L5.46258 10.3302L3.91413 20.5335Z" fill="white"/>
<path d="M15.9574 26.9263H12.7314V6.77393H15.9574V15.4107H19.6134V6.77393H22.8824V26.9263H19.6134V18.2896H15.9574V26.9263Z" fill="white"/>
<path d="M24.9902 11.6005C24.9902 8.38285 26.7107 6.52002 29.8937 6.52002C33.0336 6.52002 34.7971 8.38285 34.7971 11.6005V22.1C34.7971 25.3177 33.0766 27.1805 29.8937 27.1805C26.7537 27.1805 24.9902 25.3177 24.9902 22.1V11.6005ZM28.2162 22.2694C28.2162 23.7088 28.8614 24.2592 29.8937 24.2592C30.9259 24.2592 31.5711 23.7088 31.5711 22.2694V11.3888C31.5711 9.94932 30.9259 9.39894 29.8937 9.39894C28.8614 9.39894 28.2162 9.94932 28.2162 11.3888V22.2694Z" fill="white"/>
<path d="M43.5713 26.9263C43.3993 26.4183 43.2702 26.0796 43.2702 24.4708V21.2955C43.2702 19.4327 42.625 18.713 41.1626 18.713H40.0443V26.9263H36.8184V6.77393H41.6788C45.0337 6.77393 46.4531 8.29806 46.4531 11.431V12.9975C46.4531 15.072 45.7649 16.4268 44.3455 17.1042C45.937 17.7815 46.4962 19.3057 46.4962 21.3802V24.4708C46.4962 25.4445 46.5392 26.1643 46.8403 26.9263C46.8403 26.9263 43.5713 26.9263 43.5713 26.9263ZM40.0443 9.65284V15.834H41.2917C42.496 15.834 43.2272 15.326 43.2272 13.7172V11.7274C43.2272 10.2879 42.7111 9.65284 41.5927 9.65284H40.0443V9.65284Z" fill="white"/>
<path d="M59.0125 26.9263H55.7435L55.1844 23.2854H51.2272L50.6681 26.9263H47.7002L50.9691 6.77393H55.7005L59.0125 26.9263ZM51.6573 20.5335H54.7542L53.2058 10.3302L51.6573 20.5335Z" fill="white"/>
<path d="M78.6699 12.3201V26.9263H75.7881V6.77393H79.8313L83.1432 18.84V6.77393H86.025V26.9263H82.7131L78.6699 12.3201Z" fill="black"/>
<path d="M88.0039 11.6005C88.0039 8.38285 89.7244 6.52002 92.9073 6.52002C96.0472 6.52002 97.8107 8.38285 97.8107 11.6005V22.1C97.8107 25.3177 96.0902 27.1805 92.9073 27.1805C89.7674 27.1805 88.0039 25.3177 88.0039 22.1V11.6005ZM91.2298 22.2694C91.2298 23.7088 91.875 24.2592 92.9073 24.2592C93.9396 24.2592 94.5848 23.7088 94.5848 22.2694V11.3888C94.5848 9.94932 93.9396 9.39894 92.9073 9.39894C91.875 9.39894 91.2298 9.94932 91.2298 11.3888V22.2694Z" fill="black"/>
<path d="M104.176 6.52002C107.316 6.52002 108.907 8.38285 108.907 11.6005V12.2355H105.853V11.3888C105.853 9.94932 105.251 9.39894 104.262 9.39894C103.23 9.39894 102.67 9.94932 102.67 11.3888C102.67 15.5378 108.95 16.2999 108.95 22.0577C108.95 25.2753 107.316 27.1381 104.133 27.1381C100.993 27.1381 99.3154 25.2753 99.3154 22.0577V20.8299H102.369V22.2694C102.369 23.7088 103.014 24.2169 104.047 24.2169C105.079 24.2169 105.724 23.7088 105.724 22.2694C105.724 18.1204 99.4445 17.3583 99.4445 11.6005C99.4445 8.38285 101.079 6.52002 104.176 6.52002Z" fill="black"/>
<path d="M114.413 6.77393H124.349V9.65284H120.994V26.9263H117.768V9.65284H114.413V6.77393Z" fill="black"/>
<path d="M125.468 11.6005C125.468 8.38285 127.188 6.52002 130.371 6.52002C133.511 6.52002 135.275 8.38285 135.275 11.6005V22.1C135.275 25.3177 133.554 27.1805 130.371 27.1805C127.231 27.1805 125.468 25.3177 125.468 22.1V11.6005ZM128.694 22.2694C128.694 23.7088 129.339 24.2592 130.371 24.2592C131.403 24.2592 132.049 23.7088 132.049 22.2694V11.3888C132.049 9.94932 131.403 9.39894 130.371 9.39894C129.339 9.39894 128.694 9.94932 128.694 11.3888V22.2694Z" fill="black"/>
<path d="M146.673 19.3905V22.0577C146.673 25.2753 145.038 27.1381 141.855 27.1381C138.716 27.1381 137.038 25.2753 137.038 22.0577V11.6005C137.038 8.38285 138.673 6.52002 141.855 6.52002C144.995 6.52002 146.673 8.38285 146.673 11.6005V13.548H143.619V11.3888C143.619 9.94932 142.974 9.39894 141.941 9.39894C140.909 9.39894 140.264 9.94932 140.264 11.3888V22.2694C140.264 23.7088 140.909 24.2169 141.941 24.2169C142.974 24.2169 143.619 23.7088 143.619 22.2694V19.3905H146.673Z" fill="black"/>
<path d="M159.06 26.9263H155.791L155.232 23.2854H151.275L150.716 26.9263H147.748L151.017 6.77393H155.748L159.06 26.9263ZM151.705 20.5335H154.802L153.254 10.3302L151.705 20.5335Z" fill="black"/>
<path d="M174.631 11.7274V14.3523C174.631 17.5699 173.039 19.348 169.813 19.348H168.308V26.9263H165.082V6.77393H169.813C173.039 6.77393 174.631 8.50974 174.631 11.7274ZM168.308 9.65284V16.4691H169.813C170.846 16.4691 171.405 16.0034 171.405 14.5639V11.558C171.405 10.1185 170.846 9.65284 169.813 9.65284C169.813 9.65284 168.308 9.65284 168.308 9.65284Z" fill="black"/>
<path d="M186.287 26.9263H183.018L182.459 23.2854H178.502L177.942 26.9263H175.018L178.287 6.77393H183.018L186.287 26.9263ZM178.932 20.5335H182.029L180.48 10.3302L178.932 20.5335Z" fill="black"/>
<path d="M194.503 26.9263C194.331 26.4183 194.202 26.0796 194.202 24.4708V21.2955C194.202 19.4327 193.557 18.713 192.094 18.713H190.976V26.9263H187.75V6.77393H192.61C195.965 6.77393 197.385 8.29806 197.385 11.431V12.9975C197.385 15.072 196.697 16.4268 195.277 17.1042C196.869 17.7815 197.428 19.3057 197.428 21.3802V24.4708C197.428 25.4445 197.471 26.1643 197.772 26.9263C197.772 26.9263 194.503 26.9263 194.503 26.9263ZM190.976 9.65284V15.834H192.223C193.428 15.834 194.159 15.326 194.159 13.7172V11.7274C194.159 10.2879 193.643 9.65284 192.524 9.65284H190.976V9.65284Z" fill="black"/>
<path d="M198.589 6.77393H208.568V9.65284H205.213V26.9263H201.987V9.65284H198.632V6.77393H198.589Z" fill="black"/>
<path d="M209.943 6.77393H213.169V26.9263H209.943V6.77393Z" fill="black"/>
<path d="M224.826 19.3905V22.0577C224.826 25.2753 223.192 27.1381 220.009 27.1381C216.869 27.1381 215.191 25.2753 215.191 22.0577V11.6005C215.191 8.38285 216.826 6.52002 220.009 6.52002C223.149 6.52002 224.826 8.38285 224.826 11.6005V13.548H221.772V11.3888C221.772 9.94932 221.127 9.39894 220.095 9.39894C219.063 9.39894 218.417 9.94932 218.417 11.3888V22.2694C218.417 23.7088 219.063 24.2169 220.095 24.2169C221.127 24.2169 221.772 23.7088 221.772 22.2694V19.3905H224.826Z" fill="black"/>
<path d="M226.805 6.77393H230.031V26.9263H226.805V6.77393Z" fill="black"/>
<path d="M241.902 11.7274V14.3523C241.902 17.5699 240.311 19.348 237.085 19.348H235.579V26.9263H232.354V6.77393H237.085C240.311 6.77393 241.902 8.50974 241.902 11.7274ZM235.579 9.65284V16.4691H237.085C238.117 16.4691 238.676 16.0034 238.676 14.5639V11.558C238.676 10.1185 238.117 9.65284 237.085 9.65284C237.085 9.65284 235.579 9.65284 235.579 9.65284Z" fill="black"/>
<path d="M253.558 26.9263H250.289L249.73 23.2854H245.773L245.214 26.9263H242.246L245.515 6.77393H250.246L253.558 26.9263ZM246.246 20.5335H249.343L247.795 10.3302L246.246 20.5335Z" fill="black"/>
<path d="M261.773 26.9263C261.601 26.4183 261.472 26.0796 261.472 24.4708V21.2955C261.472 19.4327 260.827 18.713 259.365 18.713H258.246V26.9263H255.021V6.77393H259.881C263.236 6.77393 264.655 8.29806 264.655 11.431V12.9975C264.655 15.072 263.967 16.4268 262.548 17.1042C264.139 17.7815 264.698 19.3057 264.698 21.3802V24.4708C264.698 25.4445 264.741 26.1643 265.042 26.9263C265.042 26.9263 261.773 26.9263 261.773 26.9263ZM258.289 9.65284V15.834H259.537C260.741 15.834 261.472 15.326 261.472 13.7172V11.7274C261.472 10.2879 260.956 9.65284 259.838 9.65284H258.289V9.65284Z" fill="black"/>
</g>
<defs>
<clipPath id="clip0">
<rect width="277" height="50" fill="white"/>
</clipPath>
</defs>
</svg>
