<svg width="158" height="133" viewBox="0 0 158 133" fill="none" xmlns="http://www.w3.org/2000/svg">
<path d="M148.769 81.4202L137.566 37.3991C137.517 37.2017 137.394 37.0289 137.221 36.9302C137.048 36.8315 136.851 36.8069 136.653 36.8562C135.321 37.2264 2.91208 74.215 1.06142 74.6838C0.864012 74.7332 0.715959 74.8565 0.617257 75.0293C0.518555 75.202 0.493879 75.3994 0.54323 75.5968L11.7459 119.618C11.8446 120.013 12.2394 120.26 12.6342 120.161C13.3992 119.963 13.3992 119.963 14.7563 119.569C16.0641 119.174 26.3785 116.089 32.2266 114.362L47.9696 132.375C48.1176 132.523 48.2904 132.573 48.4878 132.573C48.6112 132.573 48.7345 132.548 48.8579 132.474C49.154 132.301 49.2774 131.98 49.2034 131.66L43.4293 111.327C52.7566 108.711 147.165 82.6047 148.251 82.3085C148.621 82.1852 148.868 81.7904 148.769 81.4202Z" fill="#1565E5"/>
<path d="M132.235 32.3409L128.114 16.746C128.114 16.6966 128.089 16.6719 128.065 16.6226C128.065 16.5732 128.065 16.5239 128.04 16.4992L123.919 0.904281C123.746 0.262717 123.08 -0.132091 122.439 0.0406375L83.5006 10.3303C83.1799 10.4044 82.9331 10.6018 82.7604 10.8979C82.5877 11.1693 82.563 11.5148 82.637 11.8109L86.7578 27.4058C86.7578 27.4552 86.7825 27.4798 86.8072 27.5292C86.8072 27.5785 86.8072 27.6279 86.8318 27.6526L90.9527 43.2475C91.1007 43.7904 91.5942 44.1605 92.1124 44.1605C92.2111 44.1605 92.3098 44.1358 92.4332 44.1111L131.396 33.8214C131.717 33.7474 131.963 33.55 132.136 33.2539C132.259 32.9825 132.309 32.6617 132.235 32.3409ZM85.2773 12.3537L121.896 2.68092L125.4 15.9317L88.7812 25.6045L85.2773 12.3537ZM92.9514 41.4462L89.4475 28.1954L126.066 18.5226L129.57 31.7734L92.9514 41.4462Z" fill="black"/>
<path d="M107.584 21.2612L102.378 1.54541C102.378 1.54541 78.3931 7.88702 77.6035 8.08443L82.8101 27.8002C83.4516 27.6521 83.0568 27.7755 97.9608 23.8027L99.7868 29.9223L103.858 22.2729C104.105 22.1742 107.584 21.2612 107.584 21.2612Z" fill="#1565E5"/>
<path d="M99.7866 30.9592C99.762 30.9592 99.7126 30.9592 99.6879 30.9592C99.2684 30.9099 98.8983 30.6138 98.7996 30.219L97.2697 25.0864C84.093 28.5904 83.6982 28.6891 83.1553 28.8125L83.0566 28.8371C82.5138 28.9605 81.9462 28.6397 81.7982 28.0969L76.5916 8.35644C76.5176 8.08501 76.567 7.7889 76.715 7.54214C76.8631 7.29539 77.0851 7.12266 77.3812 7.07331C77.9981 6.92526 93.8398 2.73041 102.131 0.534293C102.402 0.460266 102.674 0.509617 102.92 0.632995C103.167 0.781048 103.34 1.00313 103.414 1.27456L108.62 20.9903C108.694 21.2617 108.645 21.5332 108.522 21.7799C108.374 22.0267 108.152 22.1994 107.88 22.2734C107.88 22.2734 105.585 22.8903 104.574 23.1371L100.724 30.3917C100.527 30.7371 100.157 30.9592 99.7866 30.9592ZM97.9606 22.7423C98.4048 22.7423 98.8243 23.0384 98.9723 23.4825L100.058 27.1345L102.92 21.7306C103.068 21.4838 103.291 21.2864 103.587 21.2124C103.759 21.163 105.265 20.7682 106.326 20.4968L101.662 2.80444C97.6152 3.86549 82.9826 7.73955 78.9111 8.82527L83.5748 26.5176C84.8086 26.1968 88.0411 25.3332 97.7139 22.7669C97.7879 22.7669 97.8619 22.7423 97.9606 22.7423Z" fill="black"/>
<path d="M90.6323 7.61572L94.0129 11.6378L98.6272 10.5028L95.6414 14.4755L98.3804 18.9911L93.5687 16.7457L90.2128 20.4717L90.1388 16.0794L85.4258 14.3521L89.9414 12.8469L90.6323 7.61572Z" fill="white"/>
<path d="M90.2131 21.1136C90.139 21.1136 90.065 21.0889 89.991 21.0642C89.7442 20.9655 89.5715 20.7188 89.5715 20.4473L89.4975 16.4992L85.2039 14.92C84.9325 14.8213 84.7598 14.5745 84.7598 14.2784C84.7598 13.9823 84.9572 13.7603 85.2039 13.6616L89.3247 12.2797L89.9663 7.46799C89.991 7.19656 90.1884 6.99916 90.4351 6.92513C90.6819 6.8511 90.9533 6.92513 91.126 7.12253L94.2352 10.8239L98.4547 9.86152C98.7261 9.78749 99.0222 9.91087 99.1703 10.1329C99.3183 10.355 99.3183 10.6758 99.1456 10.8979L96.4313 14.5005L98.9482 18.646C99.0962 18.8928 99.0716 19.2135 98.8742 19.4356C98.6768 19.6577 98.356 19.7071 98.1092 19.5837L93.7417 17.5356L90.7066 20.8915C90.5585 21.0395 90.3858 21.1136 90.2131 21.1136ZM87.4247 14.3771L90.3611 15.4629C90.6079 15.5616 90.7806 15.8083 90.8053 16.0798L90.8546 18.7941L93.0754 16.3265C93.2728 16.1044 93.5936 16.0551 93.8404 16.1785L96.678 17.5109L95.0741 14.8707C94.9261 14.6486 94.9508 14.3525 95.0988 14.1304L96.9742 11.5888L94.1611 12.2797C93.9144 12.3291 93.6676 12.255 93.4949 12.0576L91.0767 9.19528L90.5832 12.946C90.5585 13.1927 90.3858 13.4148 90.139 13.4888L87.4247 14.3771Z" fill="black"/>
<path d="M148.942 91.6363L139.713 51.3411L146.03 49.8853L153.408 90.5999L148.942 91.6363ZM149.484 101.655C148.942 99.2363 150.2 97.0895 152.421 96.5714C154.79 96.0285 156.69 97.435 157.257 99.8532C157.8 102.222 156.69 104.394 154.321 104.936C152.001 105.455 150.003 103.999 149.484 101.655Z" fill="black"/>
<path d="M15.8659 87.9106L22.2569 110.612L17.8153 111.871L8.98145 80.5326L15.1503 78.8053L25.4894 96.1522L20.2088 77.3988L24.6011 76.165L33.4349 107.503L28.3764 108.934L15.8659 87.9106Z" fill="white"/>
<path d="M29.4379 82.8771C28.0314 77.8679 29.8574 74.2406 34.6938 72.8835C39.5302 71.5263 42.9847 73.6484 44.3912 78.6576L48.9809 94.9681C50.3874 99.9772 48.5614 103.605 43.725 104.962C38.8886 106.319 35.434 104.197 34.0275 99.1876L29.4379 82.8771ZM39.0366 98.1019C39.6782 100.347 40.8873 100.915 42.4665 100.471C44.0458 100.027 44.786 98.8915 44.1445 96.6707L39.3821 79.7433C38.7405 77.4978 37.5314 76.9303 35.9522 77.3744C34.373 77.8186 33.6327 78.9537 34.2743 81.1745L39.0366 98.1019Z" fill="white"/>
<path d="M51.5223 68.1459C56.3094 66.7887 59.5912 68.9602 60.9977 73.994L61.2692 74.981L56.6055 76.2888L56.2354 74.981C55.5938 72.7355 54.4587 72.1433 52.9042 72.5875C51.3249 73.0316 50.6834 74.142 51.3003 76.3628C53.1262 82.8031 63.0952 81.2979 65.6121 90.2551C67.0186 95.2643 65.316 98.8422 60.4796 100.199C55.6431 101.557 52.3366 99.4098 50.9054 94.376L50.3626 92.4513L55.0263 91.1435L55.6678 93.3889C56.3094 95.6344 57.5185 96.1526 59.073 95.7084C60.6276 95.2643 61.3925 94.1786 60.7757 91.9331C58.9497 85.4928 48.9808 86.998 46.4639 78.0408C45.082 73.0563 46.7353 69.503 51.5223 68.1459Z" fill="white"/>
<path d="M66.3525 64.3458L81.5773 60.0522L82.8358 64.5185L77.6786 65.9744L85.254 92.846L80.3189 94.2279L72.7435 67.3562L67.611 68.8367L66.3525 64.3458Z" fill="white"/>
<path d="M85.0062 67.2325C83.5997 62.2234 85.4257 58.5961 90.2621 57.2389C95.0985 55.8818 98.5531 58.0039 99.9596 63.013L104.549 79.3235C105.956 84.3327 104.13 87.96 99.2934 89.3171C94.457 90.6743 91.0024 88.5522 89.5959 83.5431L85.0062 67.2325ZM94.605 82.4573C95.2466 84.7028 96.4557 85.2703 98.0349 84.8262C99.6141 84.382 100.354 83.247 99.7128 81.0262L94.9505 64.0987C94.3089 61.8533 93.0998 61.2857 91.5206 61.7299C89.9413 62.1741 89.2011 63.3091 89.8426 65.5299L94.605 82.4573Z" fill="white"/>
<path d="M120.391 70.3665L121.576 74.5367C122.982 79.5458 121.28 83.1238 116.443 84.4809C111.607 85.8381 108.3 83.6913 106.869 78.6575L102.28 62.347C100.873 57.3379 102.576 53.7599 107.412 52.4027C112.249 51.0456 115.555 53.1924 116.986 58.2262L117.85 61.2613L113.186 62.5691L112.249 59.2132C111.607 56.9677 110.398 56.4002 108.819 56.8443C107.239 57.2885 106.499 58.4236 107.141 60.6444L111.903 77.5718C112.545 79.8173 113.754 80.3354 115.308 79.8913C116.888 79.4471 117.628 78.3614 117.011 76.1159L115.752 71.6497L120.391 70.3665Z" fill="white"/>
<path d="M142.181 76.8313L137.221 78.2378L134.778 72.7845L128.733 74.4871L129.473 80.4093L124.957 81.6924L121.157 48.9233L128.362 46.8999L142.181 76.8313ZM128.14 70.0702L132.878 68.7377L126.043 53.5376L128.14 70.0702Z" fill="white"/>
<path d="M17.5935 112.265L8.58691 80.2855L15.3233 78.3854L24.5273 93.8076L19.8143 77.1023L24.8234 75.6958L33.83 107.675L28.204 109.255L16.8039 90.1803L22.6273 110.834L17.5935 112.265ZM9.40121 80.7296L18.0376 111.451L21.8377 110.39L14.8792 85.6154L28.5494 108.49L33.0404 107.231L24.4039 76.5101L20.6532 77.5711L26.526 98.3973L15.0519 79.1504L9.40121 80.7296Z" fill="white"/>
<path d="M41.0348 105.676C37.4815 105.676 34.8906 103.431 33.7061 99.2608L29.1165 82.9503C27.6606 77.7438 29.6593 73.9437 34.5945 72.5619C37.0867 71.871 39.2335 72.0437 40.9854 73.1048C42.7127 74.1411 43.9712 75.9918 44.6867 78.5827L49.2764 94.8933C50.0167 97.4842 49.8933 99.705 48.9556 101.506C48.0179 103.308 46.266 104.591 43.7738 105.282C42.8361 105.528 41.8984 105.676 41.0348 105.676ZM29.7334 82.7776L34.323 99.0881C35.7049 103.974 38.9867 105.948 43.6257 104.64C45.9205 103.999 47.5491 102.839 48.3881 101.186C49.2517 99.5569 49.3257 97.4842 48.6595 95.066L44.0699 78.7555C43.3789 76.3373 42.2439 74.61 40.64 73.6723C39.0607 72.71 37.062 72.5619 34.7672 73.2035C30.1529 74.5113 28.3762 77.8918 29.7334 82.7776ZM41.5283 100.939C40.1711 100.939 39.2335 100.026 38.7153 98.1998L33.9529 81.2724C33.6321 80.1126 33.6321 79.175 34.0022 78.4594C34.323 77.7931 34.9646 77.3243 35.8776 77.0529C36.7906 76.8061 37.5802 76.8801 38.1971 77.2749C38.8633 77.6944 39.3815 78.5087 39.7023 79.6438L44.4647 96.5712C45.1062 98.8413 44.4647 100.248 42.5647 100.791C42.1698 100.889 41.8491 100.939 41.5283 100.939ZM39.3568 98.0024C40.0477 100.495 41.4049 100.421 42.3672 100.149C43.3296 99.8777 44.514 99.2362 43.8231 96.7439L39.0607 79.8165C38.7893 78.8295 38.3698 78.1386 37.8516 77.8178C37.3828 77.5217 36.7906 77.4723 36.0503 77.6697C35.31 77.8671 34.8412 78.2126 34.5945 78.7308C34.323 79.2983 34.323 80.0879 34.5945 81.075L39.3568 98.0024Z" fill="white"/>
<path d="M57.8148 100.939C56.4823 100.939 55.2979 100.618 54.2615 99.9768C52.5836 98.9404 51.3498 97.0897 50.6096 94.4988L49.968 92.2533L55.2486 90.7728L55.9642 93.3391C56.2356 94.3261 56.6551 94.9923 57.1733 95.3131C57.6421 95.6092 58.2343 95.6339 58.9746 95.4365C59.7148 95.2391 60.1837 94.8936 60.4551 94.4001C60.7265 93.8572 60.7265 93.0676 60.4551 92.0806C59.6655 89.2676 57.2473 88.0585 54.4836 86.652C51.2265 85.0234 47.5498 83.1727 46.1433 78.1883C44.6628 72.9077 46.5134 69.2311 51.3992 67.8492C56.2849 66.4674 59.7889 68.6388 61.2694 73.9194L61.6395 75.2272L56.359 76.7077L55.9148 75.1038C55.6434 74.0921 55.2239 73.4259 54.7304 73.0804C54.2862 72.7843 53.694 72.735 52.9784 72.9324C52.2628 73.1298 51.794 73.4752 51.5719 73.9688C51.3252 74.5116 51.3252 75.3012 51.6213 76.3129C52.4109 79.1259 54.8291 80.335 57.5927 81.7416C60.8499 83.3701 64.5266 85.2208 65.9331 90.2053C66.6733 92.7962 66.5746 95.017 65.6863 96.7936C64.7733 98.5949 63.046 99.8781 60.5785 100.569C59.6161 100.816 58.6785 100.939 57.8148 100.939ZM50.807 92.6975L51.2511 94.3014C51.942 96.7443 53.0771 98.4469 54.607 99.4092C56.1616 100.372 58.1109 100.544 60.4058 99.8781C62.7006 99.2365 64.2798 98.0768 65.1188 96.4482C65.9331 94.8196 66.0071 92.7715 65.3162 90.3286C63.9837 85.6156 60.6032 83.913 57.3213 82.2597C54.533 80.8532 51.8927 79.5208 51.0044 76.4116C50.6836 75.2272 50.6589 74.3142 51.0044 73.6233C51.3252 72.9571 51.9174 72.4882 52.8304 72.2168C53.7434 71.97 54.5083 72.0441 55.1252 72.4636C55.7667 72.883 56.2356 73.6727 56.581 74.8571L56.8525 75.8441L60.8746 74.709L60.6772 74.0428C59.2954 69.083 56.1369 67.1583 51.5966 68.4414C47.0563 69.7246 45.403 73.0064 46.7849 77.9662C48.1173 82.6792 51.4979 84.3818 54.7797 86.0351C57.5681 87.4416 60.2083 88.7741 61.0967 91.8832C61.4174 93.0429 61.4174 93.9559 61.0473 94.6715C60.7265 95.3378 60.085 95.7819 59.172 96.0534C58.259 96.3001 57.4694 96.2508 56.8525 95.856C56.1862 95.4365 55.6927 94.6715 55.3473 93.4871L54.8044 91.5624L50.807 92.6975Z" fill="white"/>
<path d="M80.0971 94.6464L72.5464 67.7994L67.3892 69.2553L65.958 64.1474L81.8244 59.6812L83.2556 64.789L78.0984 66.2448L85.6738 93.1165L80.0971 94.6464ZM72.9905 66.9851L80.5659 93.8568L84.8595 92.6477L77.2841 65.776L82.4413 64.3202L81.3555 60.4708L66.7723 64.5916L67.858 68.441L72.9905 66.9851Z" fill="white"/>
<path d="M96.5797 90.0324C93.0264 90.0324 90.4355 87.787 89.2511 83.6168L84.6614 67.3063C83.2056 62.0997 85.2043 58.2997 90.1394 56.9179C92.6316 56.227 94.7784 56.3997 96.5303 57.4607C98.2576 58.4971 99.5161 60.3478 100.232 62.9387L104.821 79.2492C106.277 84.4558 104.278 88.2558 99.3434 89.6376C98.381 89.8844 97.468 90.0324 96.5797 90.0324ZM85.303 67.1335L89.8926 83.4441C91.2744 88.3298 94.5563 90.3039 99.1953 88.9961C103.81 87.6883 105.611 84.283 104.229 79.4219L99.6395 63.1114C98.9485 60.6932 97.8135 58.9659 96.2342 58.0283C94.655 57.0659 92.6563 56.9179 90.3615 57.5594C85.7225 58.8672 83.9458 62.2725 85.303 67.1335ZM97.0979 85.2947C95.7407 85.2947 94.8031 84.3817 94.2849 82.5557L89.5225 65.6283C89.2017 64.4686 89.2017 63.5309 89.5718 62.8153C89.8926 62.1491 90.5342 61.6802 91.4472 61.4088C92.3602 61.1621 93.1498 61.2361 93.7667 61.6309C94.4329 62.0504 94.9511 62.8647 95.2719 63.9997L100.034 80.9272C100.676 83.1973 100.034 84.6038 98.1343 85.1467C97.7394 85.2454 97.4187 85.2947 97.0979 85.2947ZM94.9264 82.3583C95.6173 84.8506 96.9745 84.7765 97.9368 84.5051C98.8992 84.2337 100.084 83.5921 99.3927 81.0999L94.6303 64.1725C94.3589 63.1855 93.9394 62.4945 93.4212 62.1738C92.9524 61.8776 92.3602 61.8283 91.6199 62.0257C90.8796 62.2231 90.4108 62.5686 90.1641 63.0867C89.8926 63.6543 89.8926 64.4439 90.1641 65.4309L94.9264 82.3583Z" fill="white"/>
<path d="M113.754 85.196C112.421 85.196 111.237 84.8752 110.2 84.2337C108.522 83.1973 107.289 81.3466 106.548 78.7557L101.959 62.4452C100.478 57.1646 102.378 53.4879 107.313 52.0814C109.781 51.3905 111.928 51.5633 113.63 52.6243C115.308 53.6607 116.542 55.5113 117.282 58.1023L118.22 61.4581L112.939 62.9387L111.903 59.262C111.632 58.275 111.212 57.5841 110.694 57.2633C110.225 56.9672 109.633 56.9178 108.893 57.1152C108.152 57.3127 107.683 57.6581 107.437 58.1763C107.165 58.7438 107.165 59.5335 107.437 60.5205L112.199 77.4479C112.742 79.3232 113.655 79.9895 115.21 79.5453C116.764 79.1011 117.208 78.0648 116.69 76.1894L115.333 71.4024L120.613 69.9218L121.872 74.4128C123.352 79.6934 121.452 83.37 116.517 84.7765C115.53 85.0726 114.617 85.196 113.754 85.196ZM110.077 52.3529C109.263 52.3529 108.399 52.4762 107.486 52.7477C102.896 54.0308 101.194 57.3373 102.576 62.2971L107.165 78.6076C107.856 81.0505 108.991 82.7531 110.521 83.7155C112.076 84.6778 114.025 84.8505 116.32 84.1843C120.91 82.9012 122.612 79.5947 121.23 74.6349L120.145 70.7855L116.122 71.9206L117.307 76.0907C117.924 78.3115 117.282 79.718 115.382 80.2609C113.482 80.8038 112.199 79.9401 111.558 77.7193L106.795 60.7919C106.474 59.6321 106.474 58.6945 106.844 57.9789C107.165 57.3127 107.807 56.8438 108.72 56.5724C109.633 56.3256 110.422 56.3997 111.039 56.7945C111.706 57.2139 112.224 58.0282 112.545 59.1633L113.408 62.1984L117.43 61.0633L116.665 58.3243C115.974 55.8815 114.839 54.1789 113.309 53.2165C112.372 52.6243 111.286 52.3529 110.077 52.3529Z" fill="white"/>
<path d="M124.637 82.1114L120.763 48.7007L128.511 46.5293L128.634 46.7761L142.625 77.0529L137.024 78.6322L134.581 73.1789L129.078 74.7334L129.819 80.6556L124.637 82.1114ZM121.478 49.1696L125.204 81.2724L129.078 80.1867L128.338 74.2646L134.926 72.4139L137.369 77.8672L141.688 76.6581L128.116 47.3189L121.478 49.1696ZM127.845 70.4892L125.426 51.415L133.323 68.9347L127.845 70.4892ZM126.635 55.6839L128.412 69.6503L132.434 68.5152L126.635 55.6839Z" fill="white"/>
<path d="M62.453 115.842L63.1439 118.26C63.9829 121.221 62.9959 123.245 60.0842 124.059L58.7023 124.454L60.6517 131.412L57.74 132.227L52.5088 113.695L56.8023 112.486C59.7387 111.672 61.6141 112.881 62.453 115.842ZM56.1854 115.521L57.9621 121.789L59.3439 121.394C60.2816 121.123 60.6517 120.58 60.2816 119.247L59.492 116.459C59.1218 115.127 58.5049 114.855 57.5673 115.102L56.1854 115.521Z" fill="black"/>
<path d="M76.7402 126.897L73.8038 127.736L72.3479 124.503L68.77 125.515L69.2141 129.019L66.5492 129.784L64.3037 110.414L68.5726 109.205L76.7402 126.897ZM68.4492 122.9L71.2622 122.11L67.2154 113.128L68.4492 122.9Z" fill="black"/>
<path d="M83.9696 124.874C83.6735 124.43 83.5008 124.183 83.0566 122.678L82.2423 119.766C81.7488 118.039 80.9839 117.57 79.6761 117.94L78.6644 118.211L80.7865 125.762L77.8748 126.576L72.6436 108.045L77.0358 106.811C80.0462 105.972 81.7488 107.009 82.5631 109.871L82.9826 111.327C83.5255 113.227 83.254 114.658 82.1436 115.621C83.7722 115.818 84.6359 117.101 85.1787 119.026L85.993 121.888C86.2398 122.776 86.4619 123.443 86.9554 124.06L83.9696 124.874ZM76.3202 109.871L77.9241 115.571L79.0592 115.25C80.1449 114.954 80.6631 114.288 80.2436 112.808L79.7254 110.982C79.3553 109.649 78.7384 109.205 77.702 109.501L76.3202 109.871Z" fill="black"/>
<path d="M82.2676 105.33L91.2741 102.789L92.0144 105.429L88.9793 106.292L93.4456 122.184L90.5339 122.998L86.0676 107.107L83.0325 107.97L82.2676 105.33Z" fill="black"/>
<path d="M92.3096 102.493L95.2213 101.679L100.452 120.21L97.5408 121.024L92.3096 102.493Z" fill="black"/>
<path d="M108.867 110.389L109.558 112.857C110.397 115.818 109.386 117.94 106.523 118.73C103.661 119.519 101.712 118.261 100.873 115.3L98.1583 105.651C97.3193 102.69 98.331 100.568 101.193 99.7787C104.056 98.9891 106.005 100.248 106.844 103.209L107.362 105.01L104.599 105.775L104.031 103.776C103.661 102.444 102.945 102.123 102.008 102.37C101.07 102.641 100.651 103.307 101.021 104.615L103.834 114.633C104.204 115.966 104.919 116.262 105.857 116.015C106.795 115.768 107.239 115.102 106.869 113.794L106.128 111.154L108.867 110.389Z" fill="black"/>
<path d="M107.164 98.3231L110.076 97.5088L115.307 116.04L112.395 116.854L107.164 98.3231Z" fill="black"/>
<path d="M121.897 99.1127L122.588 101.531C123.427 104.492 122.44 106.515 119.528 107.33L118.146 107.724L120.096 114.683L117.184 115.497L111.978 96.9659L116.271 95.7568C119.183 94.9425 121.058 96.1516 121.897 99.1127ZM115.63 98.7919L117.406 105.059L118.788 104.665C119.726 104.393 120.096 103.85 119.726 102.518L118.936 99.7296C118.566 98.3971 117.949 98.1257 117.011 98.3724L115.63 98.7919Z" fill="black"/>
<path d="M136.184 110.167L133.247 111.006L131.791 107.774L128.213 108.786L128.658 112.29L125.993 113.054L123.747 93.6842L128.016 92.4751L136.184 110.167ZM127.893 106.145L130.706 105.356L126.659 96.3738L127.893 106.145Z" fill="black"/>
<path d="M143.414 108.119C143.118 107.675 142.92 107.428 142.501 105.923L141.686 103.011C141.193 101.284 140.453 100.815 139.12 101.185L138.108 101.457L140.231 109.007L137.319 109.822L132.112 91.2902L136.505 90.0565C139.515 89.2175 141.218 90.2539 142.032 93.1162L142.451 94.5721C142.994 96.4721 142.723 97.9033 141.612 98.8656C143.241 99.063 144.105 100.346 144.647 102.271L145.462 105.133C145.709 106.022 145.931 106.688 146.424 107.305L143.414 108.119ZM135.764 93.1409L137.368 98.841L138.503 98.5202C139.589 98.2241 140.107 97.5578 139.688 96.0773L139.169 94.2513C138.799 92.9188 138.182 92.4747 137.146 92.7708L135.764 93.1409Z" fill="black"/>
<path d="M19.0261 64.5663L14.6091 65.8L12.4377 60.9636L7.0831 62.4688L7.74934 67.7247L3.72723 68.8598L0.34668 39.792L6.73764 37.9907L19.0261 64.5663ZM6.58959 58.5454L10.8091 57.361L4.73892 43.8882L6.58959 58.5454Z" fill="black"/>
<path d="M25.4419 62.7648L21.0744 63.9986L13.2275 36.1646L17.5951 34.9308L20.951 46.8738L25.9108 45.4673L22.5796 33.549L27.0212 32.2905L34.8433 60.0999L30.4017 61.3583L27.0458 49.44L22.0861 50.8465L25.4419 62.7648Z" fill="black"/>
<path d="M31.7087 38.188C30.4502 33.7464 32.0788 30.5386 36.3723 29.3295C40.6659 28.1204 43.7257 29.9957 44.9841 34.462L49.0556 48.9219C50.314 53.3635 48.6854 56.5713 44.3919 57.7804C40.0983 58.9895 37.0386 57.1141 35.7801 52.6479L31.7087 38.188ZM40.2464 51.6855C40.8139 53.6842 41.8997 54.1778 43.2815 53.7829C44.6633 53.3881 45.3296 52.4011 44.762 50.4024L40.5425 35.375C39.975 33.3763 38.8892 32.8828 37.5074 33.2776C36.1256 33.6724 35.4593 34.6594 36.0022 36.6581L40.2464 51.6855Z" fill="black"/>
<path d="M62.8994 52.2039C62.4552 51.5623 62.1838 51.1675 61.5422 48.8973L60.3084 44.5298C59.5928 41.9388 58.4331 41.2479 56.459 41.7908L54.9538 42.2103L58.137 53.5363L53.7694 54.7701L45.9473 26.9608L52.5356 25.1101C57.0759 23.827 59.5928 25.3816 60.8019 29.6751L61.4188 31.8712C62.2331 34.7336 61.8383 36.8557 60.1357 38.3115C62.5786 38.6076 63.8864 40.5077 64.7007 43.4194L65.9098 47.7129C66.2799 49.0701 66.6007 50.0571 67.3409 50.9454L62.8994 52.2039ZM51.4252 29.7244L53.8188 38.2622L55.5214 37.7933C57.15 37.3245 57.9396 36.3375 57.3227 34.1167L56.5577 31.3777C55.9902 29.379 55.0772 28.7127 53.5227 29.1322L51.4252 29.7244Z" fill="black"/>
<path d="M83.8727 46.3062L79.4558 47.54L77.2844 42.7036L71.9298 44.2088L72.596 49.4647L68.5739 50.5998L65.1934 21.5567L71.5843 19.7554L83.8727 46.3062ZM71.4116 40.2854L75.6311 39.101L69.5609 25.6281L71.4116 40.2854Z" fill="black"/>
<path d="M3.45457 69.2798L0 39.5705L6.93382 37.6211L19.4937 64.7642L14.4352 66.1954L12.2637 61.359L7.45201 62.7161L8.11825 67.972L3.45457 69.2798ZM0.71559 40.0393L4.02211 68.4408L7.40266 67.5032L6.73642 62.2473L12.6339 60.594L14.8053 65.4304L18.5807 64.3694L6.56369 38.386L0.71559 40.0393ZM6.29226 58.9654L4.12081 41.7666L11.252 57.5836L6.29226 58.9654ZM5.32991 46.0108L6.8598 58.1265L10.339 57.1394L5.32991 46.0108Z" fill="black"/>
<path d="M20.8259 64.3937L12.8311 35.9428L17.8402 34.5363L21.1961 46.4546L25.539 45.2455L22.1831 33.3272L27.2662 31.896L35.2858 60.3469L30.2026 61.7781L26.8221 49.8351L22.4792 51.0689L25.8351 62.9872L20.8259 64.3937ZM13.6453 36.4116L21.2948 63.604L25.0454 62.543L21.6896 50.6247L27.2909 49.0455L30.6468 60.9638L34.4715 59.878L26.8221 32.6856L22.9974 33.7713L26.3532 45.6896L20.7272 47.2689L17.3714 35.3506L13.6453 36.4116Z" fill="black"/>
<path d="M41.9726 58.4476C40.7881 58.4476 39.7271 58.1762 38.7894 57.6086C37.2348 56.671 36.1245 55.0424 35.4829 52.7229L31.4114 38.263C30.1036 33.624 31.8803 30.2435 36.2972 29.0097C38.518 28.3928 40.4427 28.5409 41.9972 29.4785C43.5518 30.4162 44.6622 32.0448 45.3037 34.3643L49.3752 48.8241C50.683 53.4631 48.9064 56.8437 44.4895 58.0775C43.6011 58.3242 42.7622 58.4476 41.9726 58.4476ZM32.0283 38.0903L36.0998 52.5502C36.692 54.6969 37.7284 56.2021 39.1102 57.0411C40.5167 57.8801 42.2687 58.0281 44.2921 57.4359C48.3635 56.2762 49.9427 53.2904 48.7336 48.9722L44.6622 34.537C44.07 32.3902 43.0336 30.885 41.6518 30.0461C40.2453 29.2071 38.4933 29.059 36.4699 29.6513C32.3984 30.7863 30.8192 33.7721 32.0283 38.0903ZM42.4661 54.2528C42.0219 54.2528 41.6271 54.1294 41.2816 53.932C40.6894 53.5619 40.2206 52.8216 39.9245 51.8099L35.705 36.7578C35.4089 35.7214 35.4335 34.8825 35.7296 34.2409C36.0257 33.624 36.5933 33.2045 37.4076 32.9825C38.2219 32.7604 38.9375 32.8097 39.505 33.1799C40.0972 33.55 40.566 34.2903 40.8622 35.302L45.0817 50.3294C45.7973 52.8463 44.5388 53.7839 43.3544 54.1047C43.0583 54.2034 42.7375 54.2528 42.4661 54.2528ZM40.5414 51.5878C40.7881 52.4515 41.1336 53.0437 41.6024 53.3398C42.0219 53.6112 42.5401 53.6359 43.157 53.4631C43.9959 53.2164 45.0323 52.6735 44.4154 50.4774L40.2206 35.4747C39.9738 34.611 39.6284 34.0188 39.1595 33.7227C38.7401 33.4513 38.2219 33.4266 37.605 33.5993C36.9634 33.7721 36.5439 34.0929 36.3219 34.5123C36.0751 35.0059 36.0751 35.6968 36.3219 36.5604L40.5414 51.5878Z" fill="black"/>
<path d="M53.5215 55.1899L45.502 26.7391L52.4111 24.7897C57.0501 23.4819 59.8138 25.0118 61.0969 29.6014L61.7138 31.7975C62.4787 34.5365 62.1826 36.6093 60.8008 38.1392C62.7995 38.6327 64.1567 40.3106 64.9956 43.3704L66.2047 47.6639C66.5749 48.947 66.871 49.9094 67.5619 50.7977L67.8827 51.1925L62.7255 52.6484L62.5774 52.4263C62.1333 51.76 61.8372 51.3406 61.1956 49.0704L59.9618 44.7028C59.6164 43.4937 59.1969 42.7288 58.6293 42.334C58.1112 41.9639 57.4449 41.9392 56.5072 42.1859L55.3228 42.5314L58.506 53.8575L53.5215 55.1899ZM46.3409 27.2079L53.9903 54.4003L57.741 53.3393L54.5332 42.0132L56.3592 41.495C57.4696 41.1742 58.3579 41.2483 59.0241 41.7171C59.7151 42.1859 60.2086 43.0496 60.6034 44.4314L61.8372 48.799C62.4047 50.773 62.6761 51.2912 63.0216 51.8094L66.7969 50.7484C66.2294 49.8847 65.9333 48.947 65.5878 47.7873L64.3787 43.4937C63.5151 40.3846 62.1826 38.8794 60.0852 38.6327L59.3449 38.534L59.9125 38.0405C61.467 36.6833 61.8618 34.6846 61.0722 31.9209L60.4553 29.7248C59.2709 25.53 56.8527 24.1728 52.5838 25.3819L46.3409 27.2079ZM53.5955 38.6573L51.0046 29.478L53.4228 28.7871C54.3111 28.5404 55.0267 28.6144 55.5942 29.0586C56.1371 29.4534 56.5566 30.1936 56.8527 31.2547L57.6176 33.9937C57.9384 35.1534 57.9137 36.0664 57.5436 36.7327C57.1982 37.3495 56.5566 37.7937 55.5942 38.0651L53.5955 38.6573ZM51.8189 29.9469L54.0397 37.8677L55.4215 37.4729C56.2111 37.2508 56.7046 36.9301 56.9761 36.4612C57.2722 35.943 57.2722 35.2028 57.0008 34.2157L56.2358 31.4768C55.9644 30.5391 55.6436 29.9469 55.2241 29.6261C54.8293 29.33 54.3111 29.2806 53.6202 29.478L51.8189 29.9469Z" fill="black"/>
<path d="M68.3013 51.0198L64.8467 21.2858L71.7805 19.3364L84.3403 46.5042L79.2819 47.9354L77.1104 43.099L72.2987 44.4561L72.9649 49.712L68.3013 51.0198ZM65.5623 21.7793L68.8688 50.1808L72.2493 49.2432L71.5831 43.9873L77.4806 42.334L79.652 47.1704L83.4274 46.1094L71.4104 20.126L65.5623 21.7793ZM71.1389 40.7054L68.9675 23.5066L76.0987 39.3236L71.1389 40.7054ZM70.1766 27.7755L71.7065 39.8911L75.1857 38.9041L70.1766 27.7755Z" fill="black"/>
</svg>
